^C:\USERS\OIHAN\PICTURES\SDLEXAMPLESVCWS\SIMPLESDLWRAPPER\EBENTOAK.C
/c /IC:\USERS\OIHAN\PICTURES\SDLEXAMPLESVCWS\\SIMPLESDLWRAPPER /IC:\USERS\OIHAN\PICTURES\SDLEXAMPLESVCWS\\SDL2\INCLUDE /IC:\USERS\OIHAN\PICTURES\SDLEXAMPLESVCWS\\SDL2IMAGE\INCLUDE /IC:\USERS\OIHAN\PICTURES\SDLEXAMPLESVCWS\\SDL2MIXER\INCLUDE /IC:\USERS\OIHAN\PICTURES\SDLEXAMPLESVCWS\\SDL2TTF\INCLUDE /ZI /JMC /nologo /W3 /WX- /diagnostics:column /Od /Oy- /D WIN32 /D _DEBUG /D _CONSOLE /D _UNICODE /D UNICODE /Gm- /EHsc /RTC1 /MDd /GS /fp:precise /Zc:wchar_t /Zc:forScope /Zc:inline /Fo"DEBUG\\" /Fd"DEBUG\VC142.PDB" /Gd /TC /analyze- /FC C:\USERS\OIHAN\PICTURES\SDLEXAMPLESVCWS\SIMPLESDLWRAPPER\EBENTOAK.C
^C:\USERS\OIHAN\PICTURES\SDLEXAMPLESVCWS\SIMPLESDLWRAPPER\GRAPHICS.C
/c /IC:\USERS\OIHAN\PICTURES\SDLEXAMPLESVCWS\\SIMPLESDLWRAPPER /IC:\USERS\OIHAN\PICTURES\SDLEXAMPLESVCWS\\SDL2\INCLUDE /IC:\USERS\OIHAN\PICTURES\SDLEXAMPLESVCWS\\SDL2IMAGE\INCLUDE /IC:\USERS\OIHAN\PICTURES\SDLEXAMPLESVCWS\\SDL2MIXER\INCLUDE /IC:\USERS\OIHAN\PICTURES\SDLEXAMPLESVCWS\\SDL2TTF\INCLUDE /ZI /JMC /nologo /W3 /WX- /diagnostics:column /Od /Oy- /D WIN32 /D _DEBUG /D _CONSOLE /D _UNICODE /D UNICODE /Gm- /EHsc /RTC1 /MDd /GS /fp:precise /Zc:wchar_t /Zc:forScope /Zc:inline /Fo"DEBUG\\" /Fd"DEBUG\VC142.PDB" /Gd /TC /analyze- /FC C:\USERS\OIHAN\PICTURES\SDLEXAMPLESVCWS\SIMPLESDLWRAPPER\GRAPHICS.C
^C:\USERS\OIHAN\PICTURES\SDLEXAMPLESVCWS\SIMPLESDLWRAPPER\IMAGEN.C
/c /IC:\USERS\OIHAN\PICTURES\SDLEXAMPLESVCWS\\SIMPLESDLWRAPPER /IC:\USERS\OIHAN\PICTURES\SDLEXAMPLESVCWS\\SDL2\INCLUDE /IC:\USERS\OIHAN\PICTURES\SDLEXAMPLESVCWS\\SDL2IMAGE\INCLUDE /IC:\USERS\OIHAN\PICTURES\SDLEXAMPLESVCWS\\SDL2MIXER\INCLUDE /IC:\USERS\OIHAN\PICTURES\SDLEXAMPLESVCWS\\SDL2TTF\INCLUDE /ZI /JMC /nologo /W3 /WX- /diagnostics:column /Od /Oy- /D WIN32 /D _DEBUG /D _CONSOLE /D _UNICODE /D UNICODE /Gm- /EHsc /RTC1 /MDd /GS /fp:precise /Zc:wchar_t /Zc:forScope /Zc:inline /Fo"DEBUG\\" /Fd"DEBUG\VC142.PDB" /Gd /TC /analyze- /FC C:\USERS\OIHAN\PICTURES\SDLEXAMPLESVCWS\SIMPLESDLWRAPPER\IMAGEN.C
^C:\USERS\OIHAN\PICTURES\SDLEXAMPLESVCWS\SIMPLESDLWRAPPER\SOINUA.C
/c /IC:\USERS\OIHAN\PICTURES\SDLEXAMPLESVCWS\\SIMPLESDLWRAPPER /IC:\USERS\OIHAN\PICTURES\SDLEXAMPLESVCWS\\SDL2\INCLUDE /IC:\USERS\OIHAN\PICTURES\SDLEXAMPLESVCWS\\SDL2IMAGE\INCLUDE /IC:\USERS\OIHAN\PICTURES\SDLEXAMPLESVCWS\\SDL2MIXER\INCLUDE /IC:\USERS\OIHAN\PICTURES\SDLEXAMPLESVCWS\\SDL2TTF\INCLUDE /ZI /JMC /nologo /W3 /WX- /diagnostics:column /Od /Oy- /D WIN32 /D _DEBUG /D _CONSOLE /D _UNICODE /D UNICODE /Gm- /EHsc /RTC1 /MDd /GS /fp:precise /Zc:wchar_t /Zc:forScope /Zc:inline /Fo"DEBUG\\" /Fd"DEBUG\VC142.PDB" /Gd /TC /analyze- /FC C:\USERS\OIHAN\PICTURES\SDLEXAMPLESVCWS\SIMPLESDLWRAPPER\SOINUA.C
^C:\USERS\OIHAN\PICTURES\SDLEXAMPLESVCWS\SIMPLESDLWRAPPER\TEXT.C
/c /IC:\USERS\OIHAN\PICTURES\SDLEXAMPLESVCWS\\SIMPLESDLWRAPPER /IC:\USERS\OIHAN\PICTURES\SDLEXAMPLESVCWS\\SDL2\INCLUDE /IC:\USERS\OIHAN\PICTURES\SDLEXAMPLESVCWS\\SDL2IMAGE\INCLUDE /IC:\USERS\OIHAN\PICTURES\SDLEXAMPLESVCWS\\SDL2MIXER\INCLUDE /IC:\USERS\OIHAN\PICTURES\SDLEXAMPLESVCWS\\SDL2TTF\INCLUDE /ZI /JMC /nologo /W3 /WX- /diagnostics:column /Od /Oy- /D WIN32 /D _DEBUG /D _CONSOLE /D _UNICODE /D UNICODE /Gm- /EHsc /RTC1 /MDd /GS /fp:precise /Zc:wchar_t /Zc:forScope /Zc:inline /Fo"DEBUG\\" /Fd"DEBUG\VC142.PDB" /Gd /TC /analyze- /FC C:\USERS\OIHAN\PICTURES\SDLEXAMPLESVCWS\SIMPLESDLWRAPPER\TEXT.C
^C:\USERS\OIHAN\PICTURES\SDLEXAMPLESVCWS\01SIMPLESTATICDEMO\01SIMPLESTATICDEMOMAIN.C
/c /IC:\USERS\OIHAN\PICTURES\SDLEXAMPLESVCWS\\SIMPLESDLWRAPPER /IC:\USERS\OIHAN\PICTURES\SDLEXAMPLESVCWS\\SDL2\INCLUDE /IC:\USERS\OIHAN\PICTURES\SDLEXAMPLESVCWS\\SDL2IMAGE\INCLUDE /IC:\USERS\OIHAN\PICTURES\SDLEXAMPLESVCWS\\SDL2MIXER\INCLUDE /IC:\USERS\OIHAN\PICTURES\SDLEXAMPLESVCWS\\SDL2TTF\INCLUDE /ZI /JMC /nologo /W3 /WX- /diagnostics:column /Od /Oy- /D WIN32 /D _DEBUG /D _CONSOLE /D _UNICODE /D UNICODE /Gm- /EHsc /RTC1 /MDd /GS /fp:precise /Zc:wchar_t /Zc:forScope /Zc:inline /Fo"DEBUG\\" /Fd"DEBUG\VC142.PDB" /Gd /TC /analyze- /FC C:\USERS\OIHAN\PICTURES\SDLEXAMPLESVCWS\01SIMPLESTATICDEMO\01SIMPLESTATICDEMOMAIN.C
^C:\USERS\OIHAN\PICTURES\SARRERA\SIMPLESDLWRAPPER\EBENTOAK.C
/c /IC:\USERS\OIHAN\PICTURES\SARRERA\\SIMPLESDLWRAPPER /IC:\USERS\OIHAN\PICTURES\SARRERA\\SDL2\INCLUDE /IC:\USERS\OIHAN\PICTURES\SARRERA\\SDL2IMAGE\INCLUDE /IC:\USERS\OIHAN\PICTURES\SARRERA\\SDL2MIXER\INCLUDE /IC:\USERS\OIHAN\PICTURES\SARRERA\\SDL2TTF\INCLUDE /ZI /JMC /nologo /W3 /WX- /diagnostics:column /Od /Oy- /D WIN32 /D _DEBUG /D _CONSOLE /D _UNICODE /D UNICODE /Gm- /EHsc /RTC1 /MDd /GS /fp:precise /Zc:wchar_t /Zc:forScope /Zc:inline /Fo"DEBUG\\" /Fd"DEBUG\VC142.PDB" /Gd /TC /analyze- /FC C:\USERS\OIHAN\PICTURES\SARRERA\SIMPLESDLWRAPPER\EBENTOAK.C
^C:\USERS\OIHAN\PICTURES\SARRERA\SIMPLESDLWRAPPER\GRAPHICS.C
/c /IC:\USERS\OIHAN\PICTURES\SARRERA\\SIMPLESDLWRAPPER /IC:\USERS\OIHAN\PICTURES\SARRERA\\SDL2\INCLUDE /IC:\USERS\OIHAN\PICTURES\SARRERA\\SDL2IMAGE\INCLUDE /IC:\USERS\OIHAN\PICTURES\SARRERA\\SDL2MIXER\INCLUDE /IC:\USERS\OIHAN\PICTURES\SARRERA\\SDL2TTF\INCLUDE /ZI /JMC /nologo /W3 /WX- /diagnostics:column /Od /Oy- /D WIN32 /D _DEBUG /D _CONSOLE /D _UNICODE /D UNICODE /Gm- /EHsc /RTC1 /MDd /GS /fp:precise /Zc:wchar_t /Zc:forScope /Zc:inline /Fo"DEBUG\\" /Fd"DEBUG\VC142.PDB" /Gd /TC /analyze- /FC C:\USERS\OIHAN\PICTURES\SARRERA\SIMPLESDLWRAPPER\GRAPHICS.C
^C:\USERS\OIHAN\PICTURES\SARRERA\SIMPLESDLWRAPPER\IMAGEN.C
/c /IC:\USERS\OIHAN\PICTURES\SARRERA\\SIMPLESDLWRAPPER /IC:\USERS\OIHAN\PICTURES\SARRERA\\SDL2\INCLUDE /IC:\USERS\OIHAN\PICTURES\SARRERA\\SDL2IMAGE\INCLUDE /IC:\USERS\OIHAN\PICTURES\SARRERA\\SDL2MIXER\INCLUDE /IC:\USERS\OIHAN\PICTURES\SARRERA\\SDL2TTF\INCLUDE /ZI /JMC /nologo /W3 /WX- /diagnostics:column /Od /Oy- /D WIN32 /D _DEBUG /D _CONSOLE /D _UNICODE /D UNICODE /Gm- /EHsc /RTC1 /MDd /GS /fp:precise /Zc:wchar_t /Zc:forScope /Zc:inline /Fo"DEBUG\\" /Fd"DEBUG\VC142.PDB" /Gd /TC /analyze- /FC C:\USERS\OIHAN\PICTURES\SARRERA\SIMPLESDLWRAPPER\IMAGEN.C
^C:\USERS\OIHAN\PICTURES\SARRERA\SIMPLESDLWRAPPER\SOINUA.C
/c /IC:\USERS\OIHAN\PICTURES\SARRERA\\SIMPLESDLWRAPPER /IC:\USERS\OIHAN\PICTURES\SARRERA\\SDL2\INCLUDE /IC:\USERS\OIHAN\PICTURES\SARRERA\\SDL2IMAGE\INCLUDE /IC:\USERS\OIHAN\PICTURES\SARRERA\\SDL2MIXER\INCLUDE /IC:\USERS\OIHAN\PICTURES\SARRERA\\SDL2TTF\INCLUDE /ZI /JMC /nologo /W3 /WX- /diagnostics:column /Od /Oy- /D WIN32 /D _DEBUG /D _CONSOLE /D _UNICODE /D UNICODE /Gm- /EHsc /RTC1 /MDd /GS /fp:precise /Zc:wchar_t /Zc:forScope /Zc:inline /Fo"DEBUG\\" /Fd"DEBUG\VC142.PDB" /Gd /TC /analyze- /FC C:\USERS\OIHAN\PICTURES\SARRERA\SIMPLESDLWRAPPER\SOINUA.C
^C:\USERS\OIHAN\PICTURES\SARRERA\SIMPLESDLWRAPPER\TEXT.C
/c /IC:\USERS\OIHAN\PICTURES\SARRERA\\SIMPLESDLWRAPPER /IC:\USERS\OIHAN\PICTURES\SARRERA\\SDL2\INCLUDE /IC:\USERS\OIHAN\PICTURES\SARRERA\\SDL2IMAGE\INCLUDE /IC:\USERS\OIHAN\PICTURES\SARRERA\\SDL2MIXER\INCLUDE /IC:\USERS\OIHAN\PICTURES\SARRERA\\SDL2TTF\INCLUDE /ZI /JMC /nologo /W3 /WX- /diagnostics:column /Od /Oy- /D WIN32 /D _DEBUG /D _CONSOLE /D _UNICODE /D UNICODE /Gm- /EHsc /RTC1 /MDd /GS /fp:precise /Zc:wchar_t /Zc:forScope /Zc:inline /Fo"DEBUG\\" /Fd"DEBUG\VC142.PDB" /Gd /TC /analyze- /FC C:\USERS\OIHAN\PICTURES\SARRERA\SIMPLESDLWRAPPER\TEXT.C
^C:\USERS\OIHAN\PICTURES\SARRERA\01SIMPLESTATICDEMO\01SIMPLESTATICDEMOMAIN.C
/c /IC:\USERS\OIHAN\PICTURES\SARRERA\\SIMPLESDLWRAPPER /IC:\USERS\OIHAN\PICTURES\SARRERA\\SDL2\INCLUDE /IC:\USERS\OIHAN\PICTURES\SARRERA\\SDL2IMAGE\INCLUDE /IC:\USERS\OIHAN\PICTURES\SARRERA\\SDL2MIXER\INCLUDE /IC:\USERS\OIHAN\PICTURES\SARRERA\\SDL2TTF\INCLUDE /ZI /JMC /nologo /W3 /WX- /diagnostics:column /Od /Oy- /D WIN32 /D _DEBUG /D _CONSOLE /D _UNICODE /D UNICODE /Gm- /EHsc /RTC1 /MDd /GS /fp:precise /Zc:wchar_t /Zc:forScope /Zc:inline /Fo"DEBUG\\" /Fd"DEBUG\VC142.PDB" /Gd /TC /analyze- /FC C:\USERS\OIHAN\PICTURES\SARRERA\01SIMPLESTATICDEMO\01SIMPLESTATICDEMOMAIN.C
^C:\USERS\OIHAN\PICTURES\SARRERA\01SIMPLESTATICDEMO\BIGARRENA.C
/c /IC:\USERS\OIHAN\PICTURES\SARRERA\\SIMPLESDLWRAPPER /IC:\USERS\OIHAN\PICTURES\SARRERA\\SDL2\INCLUDE /IC:\USERS\OIHAN\PICTURES\SARRERA\\SDL2IMAGE\INCLUDE /IC:\USERS\OIHAN\PICTURES\SARRERA\\SDL2MIXER\INCLUDE /IC:\USERS\OIHAN\PICTURES\SARRERA\\SDL2TTF\INCLUDE /ZI /JMC /nologo /W3 /WX- /diagnostics:column /Od /Oy- /D WIN32 /D _DEBUG /D _CONSOLE /D _UNICODE /D UNICODE /Gm- /EHsc /RTC1 /MDd /GS /fp:precise /Zc:wchar_t /Zc:forScope /Zc:inline /Fo"DEBUG\\" /Fd"DEBUG\VC142.PDB" /Gd /TC /analyze- /FC C:\USERS\OIHAN\PICTURES\SARRERA\01SIMPLESTATICDEMO\BIGARRENA.C
