^C:\USERS\OIHAN\DESKTOP\PBL\ACHIEVE\SARRERA LOTUTA\02SIMPLEGAME\ARRETAETAMEMORIA.C|C:\USERS\OIHAN\DESKTOP\PBL\ACHIEVE\SARRERA LOTUTA\02SIMPLEGAME\BIKOTEAK.C|C:\USERS\OIHAN\DESKTOP\PBL\ACHIEVE\SARRERA LOTUTA\02SIMPLEGAME\DESBERDINTASUNAK.C|C:\USERS\OIHAN\DESKTOP\PBL\ACHIEVE\SARRERA LOTUTA\02SIMPLEGAME\KOLOREAK.C|C:\USERS\OIHAN\DESKTOP\PBL\ACHIEVE\SARRERA LOTUTA\02SIMPLEGAME\LETRAK.C|C:\USERS\OIHAN\DESKTOP\PBL\ACHIEVE\SARRERA LOTUTA\02SIMPLEGAME\MAIN.C|C:\USERS\OIHAN\DESKTOP\PBL\ACHIEVE\SARRERA LOTUTA\02SIMPLEGAME\SARRERA.C|C:\USERS\OIHAN\DESKTOP\PBL\ACHIEVE\SARRERA LOTUTA\02SIMPLEGAME\ZENBAKIAK.C|C:\USERS\OIHAN\DESKTOP\PBL\ACHIEVE\SARRERA LOTUTA\SIMPLESDLWRAPPER\EBENTOAK.C|C:\USERS\OIHAN\DESKTOP\PBL\ACHIEVE\SARRERA LOTUTA\SIMPLESDLWRAPPER\GRAPHICS.C|C:\USERS\OIHAN\DESKTOP\PBL\ACHIEVE\SARRERA LOTUTA\SIMPLESDLWRAPPER\IMAGEN.C|C:\USERS\OIHAN\DESKTOP\PBL\ACHIEVE\SARRERA LOTUTA\SIMPLESDLWRAPPER\SOINUA.C|C:\USERS\OIHAN\DESKTOP\PBL\ACHIEVE\SARRERA LOTUTA\SIMPLESDLWRAPPER\TEXT.C
C:\USERS\OIHAN\DESKTOP\PBL\ACHIEVE\SARRERA LOTUTA\02SIMPLEGAME\DEBUG\VC142.PDB
C:\USERS\OIHAN\DESKTOP\PBL\ACHIEVE\SARRERA LOTUTA\02SIMPLEGAME\DEBUG\VC142.IDB
C:\USERS\OIHAN\DESKTOP\PBL\ACHIEVE\SARRERA LOTUTA\02SIMPLEGAME\DEBUG\ZENBAKIAK.OBJ
C:\USERS\OIHAN\DESKTOP\PBL\ACHIEVE\SARRERA LOTUTA\02SIMPLEGAME\DEBUG\SARRERA.OBJ
C:\USERS\OIHAN\DESKTOP\PBL\ACHIEVE\SARRERA LOTUTA\02SIMPLEGAME\DEBUG\LETRAK.OBJ
C:\USERS\OIHAN\DESKTOP\PBL\ACHIEVE\SARRERA LOTUTA\02SIMPLEGAME\DEBUG\KOLOREAK.OBJ
C:\USERS\OIHAN\DESKTOP\PBL\ACHIEVE\SARRERA LOTUTA\02SIMPLEGAME\DEBUG\DESBERDINTASUNAK.OBJ
C:\USERS\OIHAN\DESKTOP\PBL\ACHIEVE\SARRERA LOTUTA\02SIMPLEGAME\DEBUG\BIKOTEAK.OBJ
C:\USERS\OIHAN\DESKTOP\PBL\ACHIEVE\SARRERA LOTUTA\02SIMPLEGAME\DEBUG\ARRETAETAMEMORIA.OBJ
C:\USERS\OIHAN\DESKTOP\PBL\ACHIEVE\SARRERA LOTUTA\02SIMPLEGAME\DEBUG\MAIN.OBJ
C:\USERS\OIHAN\DESKTOP\PBL\ACHIEVE\SARRERA LOTUTA\02SIMPLEGAME\DEBUG\TEXT.OBJ
C:\USERS\OIHAN\DESKTOP\PBL\ACHIEVE\SARRERA LOTUTA\02SIMPLEGAME\DEBUG\SOINUA.OBJ
C:\USERS\OIHAN\DESKTOP\PBL\ACHIEVE\SARRERA LOTUTA\02SIMPLEGAME\DEBUG\IMAGEN.OBJ
C:\USERS\OIHAN\DESKTOP\PBL\ACHIEVE\SARRERA LOTUTA\02SIMPLEGAME\DEBUG\GRAPHICS.OBJ
C:\USERS\OIHAN\DESKTOP\PBL\ACHIEVE\SARRERA LOTUTA\02SIMPLEGAME\DEBUG\EBENTOAK.OBJ
^C:\USERS\OIHAN\DESKTOP\PBL\ACHIEVE\SARRERA LOTUTA\SIMPLESDLWRAPPER\EBENTOAK.C
C:\USERS\OIHAN\DESKTOP\PBL\ACHIEVE\SARRERA LOTUTA\02SIMPLEGAME\DEBUG\VC142.PDB
^C:\USERS\OIHAN\DESKTOP\PBL\ACHIEVE\SARRERA LOTUTA\SIMPLESDLWRAPPER\GRAPHICS.C
C:\USERS\OIHAN\DESKTOP\PBL\ACHIEVE\SARRERA LOTUTA\02SIMPLEGAME\DEBUG\VC142.PDB
^C:\USERS\OIHAN\DESKTOP\PBL\ACHIEVE\SARRERA LOTUTA\SIMPLESDLWRAPPER\IMAGEN.C
C:\USERS\OIHAN\DESKTOP\PBL\ACHIEVE\SARRERA LOTUTA\02SIMPLEGAME\DEBUG\VC142.PDB
^C:\USERS\OIHAN\DESKTOP\PBL\ACHIEVE\SARRERA LOTUTA\SIMPLESDLWRAPPER\SOINUA.C
C:\USERS\OIHAN\DESKTOP\PBL\ACHIEVE\SARRERA LOTUTA\02SIMPLEGAME\DEBUG\VC142.PDB
^C:\USERS\OIHAN\DESKTOP\PBL\ACHIEVE\SARRERA LOTUTA\SIMPLESDLWRAPPER\TEXT.C
C:\USERS\OIHAN\DESKTOP\PBL\ACHIEVE\SARRERA LOTUTA\02SIMPLEGAME\DEBUG\VC142.PDB
^C:\USERS\OIHAN\DESKTOP\PBL\ACHIEVE\SARRERA LOTUTA\02SIMPLEGAME\MAIN.C
C:\USERS\OIHAN\DESKTOP\PBL\ACHIEVE\SARRERA LOTUTA\02SIMPLEGAME\DEBUG\VC142.PDB
^C:\USERS\OIHAN\DESKTOP\PBL\ACHIEVE\SARRERA LOTUTA\02SIMPLEGAME\ARRETAETAMEMORIA.C
C:\USERS\OIHAN\DESKTOP\PBL\ACHIEVE\SARRERA LOTUTA\02SIMPLEGAME\DEBUG\VC142.PDB
^C:\USERS\OIHAN\DESKTOP\PBL\ACHIEVE\SARRERA LOTUTA\02SIMPLEGAME\BIKOTEAK.C
C:\USERS\OIHAN\DESKTOP\PBL\ACHIEVE\SARRERA LOTUTA\02SIMPLEGAME\DEBUG\VC142.PDB
^C:\USERS\OIHAN\DESKTOP\PBL\ACHIEVE\SARRERA LOTUTA\02SIMPLEGAME\DESBERDINTASUNAK.C
C:\USERS\OIHAN\DESKTOP\PBL\ACHIEVE\SARRERA LOTUTA\02SIMPLEGAME\DEBUG\VC142.PDB
^C:\USERS\OIHAN\DESKTOP\PBL\ACHIEVE\SARRERA LOTUTA\02SIMPLEGAME\KOLOREAK.C
C:\USERS\OIHAN\DESKTOP\PBL\ACHIEVE\SARRERA LOTUTA\02SIMPLEGAME\DEBUG\VC142.PDB
^C:\USERS\OIHAN\DESKTOP\PBL\ACHIEVE\SARRERA LOTUTA\02SIMPLEGAME\LETRAK.C
C:\USERS\OIHAN\DESKTOP\PBL\ACHIEVE\SARRERA LOTUTA\02SIMPLEGAME\DEBUG\VC142.PDB
^C:\USERS\OIHAN\DESKTOP\PBL\ACHIEVE\SARRERA LOTUTA\02SIMPLEGAME\SARRERA.C
C:\USERS\OIHAN\DESKTOP\PBL\ACHIEVE\SARRERA LOTUTA\02SIMPLEGAME\DEBUG\VC142.PDB
^C:\USERS\OIHAN\DESKTOP\PBL\ACHIEVE\SARRERA LOTUTA\02SIMPLEGAME\ZENBAKIAK.C
C:\USERS\OIHAN\DESKTOP\PBL\ACHIEVE\SARRERA LOTUTA\02SIMPLEGAME\DEBUG\VC142.PDB
